1,0.07620065663892495
2,0.06390776513705429
3,0.0890280216843552
4,0.08246163243490875
5,0.09490723066351073
6,0.09666335802092083
7,0.10040467282583798
8,0.08750095441704207
9,0.08391234633885623
10,0.08429411315568451
11,0.07673513018248454
12,0.06398411850041995
