1,0.07468946001440847
2,0.06981881447740215
3,0.08255183624997664
4,0.0851490986399148
5,0.10077211981040607
6,0.09543849304801509
7,0.09439419010465867
8,0.09157270362350284
9,0.08868062807659328
10,0.08406742501468875
11,0.0699828302478299
12,0.0628824006926033
