1,0.07294716740929344
2,0.06728198599618078
3,0.07956715467854869
4,0.08262253341820497
5,0.09153405474220241
6,0.09611712285168682
7,0.09681731381285805
8,0.09961807765754296
9,0.09605346912794399
10,0.08472310630171866
11,0.0748567791215786
12,0.05786123488224061
