1,0.049079754601226995
2,0.08588957055214724
3,0.05521472392638037
4,0.06134969325153374
5,0.0736196319018405
6,0.1165644171779141
7,0.06748466257668712
8,0.15950920245398773
9,0.10429447852760736
10,0.06134969325153374
11,0.11042944785276074
12,0.05521472392638037
