1,0.16129032258064516
2,0.03225806451612903
3,0.12903225806451613
4,0.03225806451612903
5,0.03225806451612903
6,0.0
7,0.06451612903225806
8,0.12903225806451613
9,0.0967741935483871
10,0.1935483870967742
11,0.0
12,0.12903225806451613
