0,0.058052196053469125
1,0.052196053469127944
2,0.04328453214513049
3,0.027243793761935073
4,0.019732654360280075
5,0.007829408020369192
6,0.005983450031826862
7,0.007065563335455124
8,0.012285168682367918
9,0.02126034373010821
10,0.03233609166136219
11,0.04544875875238701
12,0.0437937619350732
13,0.03844684914067473
14,0.03443666454487587
15,0.04462126034373011
16,0.04309357097390197
17,0.05397835773392744
18,0.05786123488224061
19,0.07135582431572247
20,0.07129217059197963
21,0.06874602164226608
22,0.07555697008274984
23,0.06409929980903883
