0,0.042244881424983505
1,0.03165472621844655
2,0.02608766102244187
3,0.01966412425782109
4,0.012742908068193655
5,0.021828451059594217
6,0.05358734273908867
7,0.06814735940556244
8,0.056978507193203784
9,0.03258064142776125
10,0.023726577238689366
11,0.022083077742155763
12,0.020173377622944178
13,0.018043772641520354
14,0.017904885360123145
15,0.013078552331570237
16,0.011898010439693985
17,0.013668823277508362
18,0.02578673857941459
19,0.05594842652284117
20,0.12002175900741889
21,0.10747560792120461
22,0.10687376303515006
23,0.07780002546266826
